<?xml version="1.0" encoding="utf-8"?>
<!-- Generator: Adobe Illustrator 24.0.3, SVG Export Plug-In . SVG Version: 6.00 Build 0)  -->
<svg version="1.1" id="Calque_1" xmlns="http://www.w3.org/2000/svg" xmlns:xlink="http://www.w3.org/1999/xlink" x="0px" y="0px"
	 viewBox="0 0 300 300" style="enable-background:new 0 0 300 300;" xml:space="preserve">
<g id="Calque_2_1_">
	<g id="Calque_1-2">
		<path d="M209.8,274.2H52.5c-27,0-49-20.3-49-45.3c0-24.2,20.6-44,46.3-45.3c2.7-38.2,37.3-68.6,79.4-68.6c2.9,0,5.8,0.1,8.7,0.4
			c5.1-23,24.3-40.2,47.8-42.7c30-3.1,56.9,18.7,60.1,48.7c1.5,14.4-2.7,28.7-11.8,40c23.1,8.8,39.3,29.8,39.3,54.2
			C273.3,247.9,244.8,274.2,209.8,274.2z M52.5,195c-20.7,0-37.6,15.2-37.6,33.9s16.9,33.9,37.6,33.9h157.3
			c28.7,0,52.1-21.2,52.1-47.2s-23.4-47.2-52.1-47.2c-3.6,0-7.2,0.3-10.7,1c-2.6,0.5-5.3-0.9-6.3-3.4
			c-10.1-23.7-35.6-39.6-63.6-39.6c-37.6,0-68.2,27.7-68.2,61.8v0.9c0.1,3.1-2.5,5.7-5.6,5.8c-0.1,0-0.3,0-0.4,0
			C54.1,195,53.3,194.9,52.5,195L52.5,195z M209.8,157c4.2,0,8.4,0.4,12.6,1.2c0.2-0.8,0.7-1.5,1.2-2.1c16-17.8,14.5-45.1-3.2-61.1
			c-0.6-0.5-1.1-1-1.7-1.5c-8.9-7.3-20.3-10.6-31.7-9.4c-18.3,2-33.4,15.3-37.7,33.3c8.9,2.1,17.5,5.7,25.2,10.7
			c11.5,7.2,20.8,17.4,27,29.5C204.2,157.2,207,157,209.8,157L209.8,157z M278.6,172.4c-0.8,0-1.6-0.2-2.3-0.5l-17-7.6
			c-2.9-1.2-4.3-4.6-3.1-7.5s4.6-4.3,7.5-3.1c0.1,0,0.1,0.1,0.2,0.1l17,7.6c2.9,1.3,4.2,4.6,2.9,7.5
			C283,171.1,280.9,172.4,278.6,172.4L278.6,172.4z M268.2,125.4c-2.9,0-5.4-2.2-5.7-5.1c0-0.2,0-0.4,0-0.6c0-2.9,2.2-5.4,5.1-5.7
			l18.5-1.9c3.1-0.3,5.9,2,6.3,5.1c0,0.2,0,0.4,0,0.6c0,2.9-2.2,5.4-5.1,5.7l-18.5,1.9C268.6,125.4,268.4,125.4,268.2,125.4
			L268.2,125.4z M121.2,100.8c-0.8,0-1.6-0.2-2.3-0.5l-17-7.6c-2.9-1.3-4.2-4.7-2.9-7.5c1.3-2.9,4.7-4.2,7.5-2.9l17,7.6
			c2.9,1.3,4.2,4.7,2.9,7.5C125.5,99.5,123.5,100.8,121.2,100.8z M254.2,88c-3.2,0-5.7-2.5-5.7-5.7c0-1.8,0.9-3.6,2.4-4.6l15-10.9
			c2.6-1.8,6.1-1.3,8,1.3c1.8,2.5,1.3,6.1-1.3,7.9l-15,10.9C256.6,87.6,255.4,88,254.2,88z M146.6,70c-1.8,0-3.6-0.9-4.6-2.4
			l-10.9-15c-0.7-1-1.1-2.1-1.1-3.4c0-3.2,2.5-5.7,5.7-5.7c1.9,0,3.6,0.9,4.7,2.4l10.9,15c1.9,2.6,1.3,6.1-1.3,8
			C149,69.7,147.8,70,146.6,70L146.6,70z M223.4,62.6c-3.2,0-5.7-2.6-5.7-5.7c0-0.8,0.2-1.6,0.5-2.3l7.6-17c1.2-2.9,4.6-4.3,7.5-3.1
			c2.9,1.2,4.3,4.6,3.1,7.5c0,0.1-0.1,0.1-0.1,0.2l-7.6,17C227.7,61.3,225.7,62.6,223.4,62.6z M184.1,56c-2.9,0-5.4-2.2-5.7-5.1
			l-1.9-18.5c0-0.2,0-0.4,0-0.6c-0.2-3.2,2.3-5.8,5.4-6c3.2-0.2,5.8,2.3,6,5.4l1.8,18.5c0,0.2,0,0.4,0,0.6c0,2.9-2.2,5.4-5.1,5.7
			C184.4,56,184.2,56,184.1,56z"/>
	</g>
</g>
</svg>
